name,id,level,isObtained,rarity,hull
22,Collab021,1,false,Elite,DD
33,Collab022,1,false,Elite,DD
Abercrombie,336,64,true,Elite,BM
Abukuma,187,73,true,Common,CL
Acasta,082,65,true,Rare,DD
Achilles,105,73,true,Rare,CL
Admiral Graf Spee,246,120,true,Elite,CA
Admiral Hipper,242,77,true,Elite,CA
Admiral Hipper μ,422,1,false,Elite,CA
Agano,321,1,false,Elite,CL
Ajax,106,75,true,Rare,CL
Akagi,224,120,true,Super-Rare,CV
Akagi μ,419,96,true,Super-Rare,CV
Akagi-chan,384,70,true,Elite,CV
Akane Shinjo,10082,1,false,Super-Rare,BB
Akashi,232,71,true,Super-Rare,AR
Akatsuki,159,71,true,Rare,DD
Alabama,401,1,false,Super-Rare,BB
Albacore,358,72,true,Super-Rare,SS
Albacore μ,477,1,false,Elite,SS
Alfredo Oriani,562,71,true,Elite,DD
Algérie,455,1,false,Super-Rare,CA
Allen M. Sumner,508,50,true,Super-Rare,DD
Amagi,367,65,true,Super-Rare,BC
Amagi-chan,510,1,false,Elite,BC
Amazon,081,72,true,Rare,DD
Ami Futami,10076,1,false,Elite,SS
An Shan,253,71,true,Elite,DD
Anchorage,Plan018,1,false,Super-Rare,CA
Anniversary Kizuna AI,Collab043,1,false,Super-Rare,CV
Aoba,192,71,true,Common,CA
Aquila,502,1,false,Super-Rare,CV
Arashio,334,1,false,Rare,DD
Archerfish,513,1,false,Super-Rare,SS
Ardent,083,65,true,Rare,DD
Arethusa,116,73,true,Rare,CL
Ariake,175,65,true,Rare,DD
Arizona,055,120,true,Elite,BB
Ark Royal,144,90,true,Elite,CV
Ark Royal META,30002,1,false,Super-Rare,CV
Arkhangelsk,536,1,false,Elite,BB
Asashio,331,66,true,Rare,DD
Ashigara,198,65,true,Elite,CA
Astoria,046,65,true,Elite,CA
Atago,201,113,true,Super-Rare,CA
Atlanta,034,73,true,Rare,CL
August von Parseval,Plan021,107,true,Super-Rare,CV
Aulick,015,71,true,Common,DD
Aurora,118,65,true,Elite,CL
Avrora,262,1,false,Super-Rare,CL
Ayanami,155,115,true,Elite,DD
Aylwin,406,71,true,Rare,DD
Azuma,Plan010,1,false,Ultra-Rare,CB
Azusa Miura,10074,1,false,Super-Rare,CA
Bache,407,65,true,Rare,DD
Bailey,263,110,true,Rare,DD
Baltimore,050,1,false,Super-Rare,CA
Baltimore μ,478,1,false,Elite,CA
Bataan,403,65,true,Elite,CVL
Beagle,086,71,true,Common,DD
Belfast,115,113,true,Super-Rare,CL
Bellona,551,71,true,Elite,CL
Benson,018,56,true,Rare,DD
Biloxi,428,1,false,Elite,CL
Birmingham,405,1,false,Elite,CL
Bismarck,250,120,true,Super-Rare,BB
Black Heart,Collab006,1,false,Super-Rare,CA
Black Prince,408,65,true,Elite,CL
Blanc,Collab003,1,false,Elite,DD
Bluegill,446,1,false,Elite,SS
Blücher,243,99,true,Super-Rare,CA
Bogue,071,81,true,Common,CVL
Boise,514,1,false,Elite,CL
Bolzano,560,71,true,Elite,CA
Bremerton,443,1,false,Super-Rare,CA
Brest,20027,1,false,Ultra-Rare,CB
Bristol,533,1,false,Super-Rare,DD
Brooklyn,031,71,true,Rare,CL
Brünhilde,566,99,true,Super-Rare,BC
Bulldog,087,71,true,Common,DD
Bunker Hill,380,1,false,Super-Rare,CV
Bush,355,1,false,Rare,DD
Béarn,458,1,false,Elite,CV
California,059,95,true,Rare,BB
Carabiniere,415,65,true,Elite,DD
Casablanca,447,1,false,Rare,CVL
Cassin,005,80,true,Common,DD
Cavalla,402,48,true,Super-Rare,SS
Centaur,356,65,true,Super-Rare,CVL
Champagne,Plan017,1,false,Super-Rare,BB
Chang Chun,255,65,true,Elite,DD
Chao Ho,494,1,false,Elite,CL
Chapayev,436,1,false,Super-Rare,CL
Charles Ausburne,013,120,true,Elite,DD
Charybdis,530,1,false,Super-Rare,CL
Chaser,376,66,true,Elite,CVL
Chen Hai,534,1,false,Elite,CVL
Cheshire,Plan013,1,false,Super-Rare,CA
Chicago,042,78,true,Rare,CA
Chihaya Kisaragi,10072,1,false,Super-Rare,CV
Chikuma,195,1,false,Super-Rare,CA
Chise Asukagawa,10086,1,false,Super-Rare,CV
Chitose,470,65,true,Elite,CVL
Chiyoda,471,71,true,Elite,CVL
Chkalov,20026,1,false,Super-Rare,CV
Choukai,203,1,false,Super-Rare,CA
Clevelad,391,65,true,Elite,CL
Cleveland,037,74,true,Elite,CL
Cleveland μ,420,65,true,Elite,CL
Colorado,060,1,false,Elite,BB
Columbia,038,1,false,Elite,CL
Comet,088,80,true,Common,DD
Concord,366,65,true,Rare,CL
Conte di Cavour,411,71,true,Rare,BB
Cooper,444,1,false,Elite,DD
Craven,008,74,true,Common,DD
Crescent,089,87,true,Common,DD
Curacoa,372,65,true,Rare,CL
Curlew,373,65,true,Rare,CL
Cygnet,090,80,true,Common,DD
Dace,342,1,false,Elite,SS
Denver,330,1,false,Elite,CL
Deutschland,245,65,true,Elite,CA
Dewey,004,1,false,Rare,DD
Dido,107,65,true,Super-Rare,CL
Dido μ,476,1,false,Super-Rare,CL
Dorsetshire,124,76,true,Elite,CA
Downes,006,80,true,Common,DD
Drake,Plan014,1,false,Ultra-Rare,CA
Duca degli Abruzzi,501,1,false,Super-Rare,CL
Duke of York,136,78,true,Super-Rare,BB
Dunkerque,352,66,true,Elite,BC
Eagle,143,1,false,Elite,CV
Echo,389,74,true,Rare,DD
Edinburgh,114,73,true,Elite,CL
Elbe,526,1,false,Elite,CVL
Elbing,548,112,true,Elite,CL
Eldridge,028,65,true,Super-Rare,DD
Elegant Kizuna AI,Collab042,1,false,Super-Rare,CA
Emanuele Pessagno,563,71,true,Elite,DD
Emden,547,116,true,Super-Rare,CL
Enterprise,077,125,true,Super-Rare,CV
Enterprise,557,65,true,Elite,CL
Erebus,149,71,true,Elite,BM
Eskimo,460,1,false,Elite,DD
Essex,357,1,false,Super-Rare,CV
Exeter,126,80,true,Elite,CA
Fiji,327,65,true,Rare,CL
Fletcher,011,73,true,Rare,DD
Foch,524,1,false,Elite,CA
Foote,016,72,true,Common,DD
Forbin,348,65,true,Rare,DD
Formidable,147,65,true,Super-Rare,CV
Fortune,092,73,true,Rare,DD
Foxhound,091,80,true,Common,DD
Friedrich der Große,Plan011,120,true,Ultra-Rare,BB
Fu Shun,254,75,true,Elite,DD
Fubuki,151,65,true,Elite,DD
Fumiruiru,Collab036,1,false,Elite,CV
Fumizuki,277,65,true,Rare,DD
Furutaka,190,98,true,Common,CA
Fusou,208,85,true,Rare,BB
Fusou META,30005,1,false,Elite,BB
Galatea,117,65,true,Rare,CL
Gangut,437,1,false,Elite,BB
Gascogne,Plan012,100,true,Super-Rare,BB
Gascogne μ,418,28,true,Super-Rare,BB
Georgia,Plan008,53,true,Super-Rare,BB
Giulio Cesare,412,65,true,Elite,BB
Giuseppe Garibaldi,559,71,true,Super-Rare,CL
Glasgow,423,1,false,Rare,CL
Glorious,148,65,true,Elite,CV
Gloucester,113,65,true,Elite,CL
Glowworm,094,73,true,Elite,DD
Gneisenau,249,115,true,Elite,BC
Gneisenau META,30007,1,false,Super-Rare,BC
Graf Zeppelin,252,125,true,Super-Rare,CV
Green Heart,Collab008,1,false,Super-Rare,CV
Gremyashchy,497,1,false,Elite,DD
Grenville,093,65,true,Elite,DD
Gridley,007,75,true,Rare,DD
Gromky,499,1,false,Elite,DD
Grozny,431,1,false,Elite,DD
Haguro,199,72,true,Elite,CA
Hai Chi,532,1,false,Elite,CL
Hai Tien,531,1,false,Elite,CL
Hakuryuu,Plan019,1,false,Ultra-Rare,CV
Halsey Powell,427,65,true,Rare,DD
Hamakaze,318,65,true,Rare,DD
Hammann,027,85,true,Rare,DD
Hanazuki,449,1,false,Elite,DD
Harbin,20025,1,false,Super-Rare,CL
Hardy,096,1,false,Elite,DD
Haruka Amami,10071,1,false,Super-Rare,CL
Haruna,206,65,true,Elite,BC
Harutsuki,296,71,true,Elite,DD
Hass,10083,1,false,Elite,CL
Hatakaze,369,65,true,Rare,DD
Hatsuharu,171,65,true,Rare,DD
Hatsushimo,174,1,false,Rare,DD
Hazelwood,365,65,true,Rare,DD
Helena,033,120,true,Elite,CL
Helena META,30003,1,false,Super-Rare,CL
Hermes,140,80,true,Common,CVL
Hermione,463,1,false,Super-Rare,CL
Hibiki,160,69,true,Elite,DD
Hiei,205,65,true,Elite,BC
Hiei-chan,383,65,true,Elite,BC
Hiryuu,227,1,false,Elite,CV
Hiryuu META,30001,1,false,Super-Rare,CV
Hiyou,218,1,false,Rare,CVL
Hiyou META,30006,1,false,Elite,CVL
Hobby,362,65,true,Rare,DD
Honoka,10062,1,false,Super-Rare,BB
Honolulu,304,65,true,Rare,CL
Hood,129,74,true,Super-Rare,BC
Hornet,078,73,true,Elite,CV
Houshou,220,1,false,Elite,CVL
Houston,043,72,true,Elite,CA
Howe,461,1,false,Super-Rare,BB
Hunter,100,1,false,Rare,DD
Hyuuga,211,95,true,Rare,BB
I-13,381,1,false,Super-Rare,SSV
I-168,398,65,true,Super-Rare,SS
I-19,338,97,true,Super-Rare,SS
I-25,396,65,true,Elite,SS
I-26,339,65,true,Elite,SS
I-56,397,66,true,Elite,SS
I-58,340,100,true,Elite,SS
Ibuki,Plan003,75,true,Super-Rare,CA
Icarus,465,1,false,Elite,DD
Ikazuchi,161,1,false,Rare,DD
Illustrious,145,71,true,Super-Rare,CV
Illustrious μ,480,1,false,Super-Rare,CV
Impero,540,1,false,Super-Rare,CV
Inazuma,162,1,false,Rare,DD
Independence,377,122,true,Elite,CVL
Indianapolis,045,120,true,Elite,CA
Indomitable,553,65,true,Super-Rare,CV
Ingraham,518,1,false,Super-Rare,DD
Intrepid,442,1,false,Super-Rare,CV
Iori Minase,10073,1,false,Super-Rare,BB
Ise,210,96,true,Rare,BB
Isokaze,317,1,false,Rare,DD
Isuzu,183,69,true,Rare,CL
Izumo,Plan004,1,false,Super-Rare,BB
Jamaica,328,72,true,Rare,CL
Javelin,101,119,true,Elite,DD
Jean Bart,353,70,true,Super-Rare,BB
Jeanne d'Arc,454,1,false,Super-Rare,CL
Jenkins,300,65,true,Rare,DD
Jersey,307,48,true,Rare,DD
Jervis,550,80,true,Super-Rare,DD
Jintsuu,309,101,true,Elite,CL
Joffre,555,103,true,Super-Rare,CV
Juneau,035,85,true,Rare,CL
Juno,102,99,true,Rare,DD
Junyou,219,1,false,Rare,CVL
Junyou META,30008,1,false,Elite,CVL
Jupiter,306,65,true,Rare,DD
Kaga,225,119,true,Super-Rare,CV
Kaga(BB),368,79,true,Super-Rare,BB
Kagerou,167,98,true,Rare,DD
Kako,191,80,true,Common,CA
Kalk,363,53,true,Rare,DD
Kamikaze,269,65,true,Rare,DD
Karlsruhe,239,119,true,Common,CL
Kashino,472,65,true,Elite,AE
Kasumi,424,1,false,Elite,DD
Kasumi,10063,1,false,Super-Rare,CA
Katsuragi,520,1,false,Super-Rare,CV
Kawakaze,288,66,true,Super-Rare,DD
Kazagumo,517,1,false,Super-Rare,DD
Kent,121,74,true,Rare,CA
Kiev,535,1,false,Super-Rare,DD
Kii,214,65,true,Super-Rare,BB
Kimberly,374,65,true,Rare,DD
King George V,134,108,true,Super-Rare,BB
Kinu,186,78,true,Elite,CL
Kinugasa,193,73,true,Common,CA
Kirishima,207,65,true,Elite,BC
Kirov,435,1,false,Super-Rare,CL
Kisaragi,272,71,true,Common,DD
Kitakaze,Plan009,1,false,Super-Rare,DD
Kiyonami,293,1,false,Rare,DD
Kizuna AI,Collab041,1,false,Elite,DD
Kongou,204,65,true,Elite,BC
Kronshtadt,539,1,false,Ultra-Rare,CB
Kumano,469,71,true,Elite,CA
Kuon,Collab031,1,false,Super-Rare,CA
Kuroshio,177,65,true,Rare,DD
Köln,240,120,true,Common,CL
Königsberg,238,100,true,Common,CL
L'Indomptable,556,71,true,Super-Rare,DD
L'Opiniâtre,395,1,false,Elite,DD
La Galissonnière,456,1,false,Elite,CL
Laffey,019,91,true,Elite,DD
Langley,072,97,true,Common,CVL
Le Malin,394,65,true,Super-Rare,DD
Le Malin μ,481,1,false,Super-Rare,DD
Le Mars,351,65,true,Rare,DD
Le Terrible,522,1,false,Super-Rare,DD
Le Triomphant,347,65,true,Super-Rare,DD
Le Téméraire,359,65,true,Elite,DD
Leander,104,80,true,Common,CL
Leipzig,241,120,true,Rare,CL
Lena,390,1,false,Elite,CL
Leonardo da Vinci,558,71,true,Super-Rare,SS
Lexington,073,73,true,Elite,CV
Li'l Sandy,392,74,true,Elite,CL
Libeccio,505,1,false,Elite,DD
Little Bel,335,73,true,Elite,CL
Little Cheshire,552,65,true,Elite,CA
Little Enterprise,516,1,false,Elite,CV
Little Illustrious,459,43,true,Elite,CV
Little Prinz Eugen,549,99,true,Elite,CA
Little Renown,451,1,false,Elite,BC
Littorio,410,65,true,Super-Rare,BB
London,119,81,true,Elite,CA
Long Island,070,105,true,Rare,CVL
Lützow,544,120,true,Super-Rare,BC
Maestrale,504,1,false,Elite,DD
Magdeburg,525,1,false,Super-Rare,CL
Maillé Brézé,523,1,false,Elite,DD
Mainz,Plan015,105,true,Super-Rare,CL
Makinami,370,65,true,Elite,DD
Mami Futami,10077,1,false,Elite,SS
Marblehead,448,1,false,Rare,CL
Marco Polo,Plan022,1,false,Super-Rare,BB
Marie Rose,10061,1,false,Super-Rare,DD
Maryland,061,1,false,Elite,BB
Massachusetts,354,65,true,Super-Rare,BB
Matchless,325,73,true,Elite,DD
Matsukaze,270,65,true,Rare,DD
Maury,010,66,true,Elite,DD
Maya,202,1,false,Super-Rare,CA
McCall,009,72,true,Common,DD
Memphis,360,1,false,Rare,CL
Memphis META,30011,1,false,Elite,CL
Michishio,333,1,false,Rare,DD
Mikasa,320,66,true,Super-Rare,BB
Mikazuki,280,72,true,Common,DD
Mikuma,189,65,true,Elite,CL
Minato Aqua,Collab053,1,false,Super-Rare,SS
Minazuki,276,71,true,Common,DD
Minneapolis,364,66,true,Super-Rare,CA
Minsk,432,1,false,Elite,DD
Misaki,10064,1,false,Super-Rare,CL
Miyuki,154,70,true,Elite,DD
Mogami,188,65,true,Elite,CL
Monarch,Plan002,100,true,Super-Rare,BB
Monica,10067,1,false,Elite,CL
Montpelier,329,74,true,Super-Rare,CL
Morrison,515,1,false,Elite,DD
Mujina,10087,1,false,Elite,BB
Mullany,375,65,true,Elite,DD
Murasaki Shion,Collab056,1,false,Elite,CVL
Murmansk,498,1,false,Elite,CL
Musashi,217,89,true,Ultra-Rare,BB
Musketeer,326,73,true,Elite,DD
Mutsu,213,65,true,Elite,BB
Mutsuki,271,100,true,Common,DD
Myoukou,196,65,true,Rare,CA
Nachi,197,73,true,Rare,CA
Naganami,450,1,false,Elite,DD
Nagara,182,74,true,Common,CL
Nagato,212,106,true,Super-Rare,BB
Nagatsuki,278,65,true,Rare,DD
Nagisa,10065,1,false,Elite,BB
Naka,310,65,true,Rare,CL
Nakiri Ayame,Collab055,1,false,Elite,CA
Namiko,10084,1,false,Elite,CA
Natsuiro Matsuri,Collab054,1,false,Elite,DD
Nautilus,519,1,false,Elite,SS
Nekone,Collab032,1,false,Super-Rare,DD
Nelson,132,73,true,Elite,BB
Neptune,Plan001,1,false,Super-Rare,CL
Neptune,Collab001,1,false,Elite,CL
Nevada,052,110,true,Common,BB
New Jersey,068,1,false,Ultra-Rare,BB
New Orleans,521,1,false,Super-Rare,CA
Newcastle,361,41,true,Rare,CL
Nicholas,301,1,false,Elite,DD
Nicoloso da Recco,506,1,false,Elite,DD
Niizuki,295,65,true,Elite,DD
Ning Hai,258,100,true,Elite,CL
Noire,Collab002,1,false,Elite,CA
Norfolk,123,74,true,Rare,CA
North Carolina,063,65,true,Super-Rare,BB
Northampton,041,74,true,Rare,CA
Noshiro,322,65,true,Super-Rare,CL
Nowaki,170,65,true,Elite,DD
Nyotengu,10066,1,false,Elite,CV
Nürnberg,486,1,false,Elite,CL
Odin,Plan016,100,true,Super-Rare,BC
Oite,507,1,false,Rare,DD
Oklahoma,053,80,true,Common,BB
Omaha,029,71,true,Common,CL
Ooshio,332,65,true,Rare,DD
Oyashio,178,65,true,Rare,DD
Pamiat Merkuria,434,1,false,Elite,CL
Penelope,495,1,false,Elite,CL
Pennsylvania,054,71,true,Rare,BB
Pensacola,039,72,true,Common,CA
Perseus,462,1,false,Super-Rare,CVL
Peter Strasser,482,1,false,Super-Rare,CV
Phoenix,032,87,true,Rare,CL
Ping Hai,259,100,true,Elite,CL
Plymouth,20023,1,false,Ultra-Rare,CL
Pola,489,68,true,Super-Rare,CA
Pompeo Magno,541,1,false,Super-Rare,DD
Portland,044,120,true,Rare,CA
Prince of Wales,135,65,true,Super-Rare,BB
Princeton,473,65,true,Elite,CVL
Prinz Adalbert,527,1,false,Super-Rare,CA
Prinz Eugen,244,125,true,Super-Rare,CA
Prinz Heinrich,483,1,false,Super-Rare,CA
Prinz Rupprecht,20024,99,true,Super-Rare,BC
Prototype Bulin MKII,002,1,false,Super-Rare,DD
Purple Heart,Collab005,1,false,Super-Rare,CL
Queen Elizabeth,130,114,true,Elite,BB
Quincy,047,65,true,Elite,CA
Radford,299,65,true,Rare,DD
Raleigh,030,71,true,Common,CL
Ranger,075,113,true,Common,CVL
Reno,445,1,false,Super-Rare,CL
Renown,127,92,true,Elite,BC
Renown META,30014,1,false,Super-Rare,BC
Repulse,128,91,true,Rare,BC
Repulse META,30012,1,false,Super-Rare,BC
Revenge,554,71,true,Elite,BB
Richelieu,453,1,false,Super-Rare,BB
Richmond,303,71,true,Common,CL
Rikka Takarada,10081,1,false,Super-Rare,CL
Ritsuko Akizuki,10075,1,false,Elite,AE
Rodney,133,73,true,Elite,BB
Roma,561,82,true,Super-Rare,BB
Roon,Plan005,125,true,Super-Rare,CA
Roon μ,479,1,false,Super-Rare,CA
Rurutie,Collab033,1,false,Super-Rare,CL
Ryuuhou,426,65,true,Super-Rare,CVL
Ryuujou,223,45,true,Elite,CVL
Saint Louis,Plan006,83,true,Super-Rare,CA
Sakawa,324,70,true,Super-Rare,CL
Salt Lake City,040,72,true,Common,CA
San Diego,036,120,true,Super-Rare,CL
San Francisco,512,1,false,Super-Rare,CA
San Juan,404,65,true,Rare,CL
Saraana,Collab035,1,false,Elite,CVL
Saratoga,074,125,true,Elite,CV
Scharnhorst,248,1,false,Elite,BC
Scharnhorst META,30009,1,false,Super-Rare,BC
Seattle,Plan007,49,true,Super-Rare,CL
Sendai,308,1,false,Rare,CL
Seydlitz,543,120,true,Super-Rare,BC
Shangri-La,378,1,false,Super-Rare,CV
Sheffield,111,113,true,Elite,CL
Sheffield μ,421,65,true,Elite,CL
Shigure,165,73,true,Elite,DD
Shimakaze,268,1,false,Ultra-Rare,DD
Shinano,231,122,true,Ultra-Rare,CV
Shirakami Fubuki,Collab051,1,false,Super-Rare,DD
Shiranui,168,109,true,Common,DD
Shiratsuyu,163,72,true,Rare,DD
Shirayuki,152,1,false,Elite,DD
Shouhou,222,104,true,Rare,CVL
Shoukaku,228,71,true,Super-Rare,CV
Shropshire,120,85,true,Rare,CA
Sims,026,85,true,Rare,DD
Sirius,371,86,true,Super-Rare,CL
Smalley,417,1,false,Rare,DD
Soobrazitelny,537,1,false,Elite,DD
Souryuu,226,97,true,Elite,CV
Souryuu META,30004,1,false,Super-Rare,CV
South Dakota,065,90,true,Super-Rare,BB
Southampton,110,65,true,Rare,CL
Sovetskaya Belorussiya,440,1,false,Super-Rare,BB
Sovetskaya Rossiya,441,1,false,Super-Rare,BB
Specialized Bulin Custom MKIII,003,1,false,Ultra-Rare,DD
Spence,017,72,true,Common,DD
St. Louis,305,65,true,Elite,CL
Stanly,409,1,false,Rare,DD
Stephen Potter,509,1,false,Elite,DD
Stremitelny,491,1,false,Elite,DD
Suffolk,122,87,true,Rare,CA
Super Gamer Kizuna AI,Collab044,1,false,Super-Rare,BB
Surcouf,350,74,true,Elite,SS
Suruga,425,65,true,Super-Rare,BB
Sussex,337,71,true,Rare,CA
Suzutsuki,468,101,true,Super-Rare,DD
Suzuya,382,32,true,Elite,CA
Swiftsure,393,1,false,Super-Rare,CL
Tai Yuan,256,46,true,Elite,DD
Taihou,230,65,true,Super-Rare,CV
Taihou μ,474,1,false,Super-Rare,CV
Takao,200,117,true,Super-Rare,CA
Tallinn,496,1,false,Super-Rare,CA
Tanikaze,319,65,true,Rare,DD
Tartu,452,1,false,Elite,DD
Tashkent,433,1,false,Super-Rare,DD
Tashkent μ,475,1,false,Super-Rare,DD
Tennessee,058,76,true,Rare,BB
Terror,150,91,true,Elite,BM
Thatcher,014,73,true,Rare,DD
Thüringen,545,110,true,Elite,BB
Ticonderoga,511,1,false,Super-Rare,CV
Tirpitz,251,120,true,Super-Rare,BB
Tokino Sora,Collab052,1,false,Super-Rare,CV
Torricelli,503,1,false,Elite,SS
Tosa,215,65,true,Super-Rare,BB
Trento,414,65,true,Rare,CA
Trento META,30013,1,false,Elite,CA
Trieste,542,1,false,Elite,CA
U-101,399,117,true,Super-Rare,SS
U-110,416,1,false,Elite,SS
U-1206,528,1,false,Elite,SS
U-37,484,1,false,Super-Rare,SS
U-410,492,1,false,Elite,SS
U-47,343,116,true,Super-Rare,SS
U-522,400,105,true,Elite,SS
U-556,386,115,true,Elite,SS
U-557,344,100,true,Elite,SS
U-73,387,110,true,Elite,SS
U-81,341,1,false,Super-Rare,SS
U-96,467,90,true,Super-Rare,SS
Ulrich von Hutten,529,1,false,Ultra-Rare,BB
Umikaze,286,1,false,Elite,DD
Unicorn,142,125,true,Elite,CVL
Universal Bulin,001,1,false,Elite,DD
Urakaze,316,65,true,Rare,DD
Uranami,429,1,false,Elite,DD
Uruuru,Collab034,1,false,Elite,CVL
Uzuki,274,72,true,Common,DD
Valiant,464,1,false,Elite,BB
Vampire,103,65,true,Elite,DD
Vanguard,137,125,true,Ultra-Rare,BB
Vauquelin,457,1,false,Elite,DD
Vert,Collab004,1,false,Elite,CV
Vestal,080,71,true,Elite,AR
Victorious,146,75,true,Super-Rare,CV
Vincennes,048,65,true,Elite,CA
Vincenzo Gioberti,490,1,false,Elite,DD
Vittorio Veneto,500,1,false,Super-Rare,BB
Volga,538,1,false,Super-Rare,CV
Wakaba,173,71,true,Rare,DD
Wakatsuki,567,70,true,Super-Rare,DD
Warspite,131,119,true,Super-Rare,BB
Washington,064,1,false,Super-Rare,BB
Wasp,079,1,false,Rare,CV
Weser,485,1,false,Elite,CVL
West Virginia,062,1,false,Elite,BB
White Heart,Collab007,1,false,Super-Rare,DD
Wichita,049,71,true,Elite,CA
Yamakaze,287,1,false,Elite,DD
Yamashiro,209,97,true,Rare,BB
Yamashiro META,30010,1,false,Elite,BB
Yat Sen,257,73,true,Elite,CL
Ying Swei,493,1,false,Elite,CL
Yoizuki,297,71,true,Elite,DD
Yorck,546,118,true,Elite,CA
York,125,73,true,Elite,CA
Yorktown,076,71,true,Elite,CV
Yukikaze,166,1,false,Super-Rare,DD
Yume Minami,10085,1,false,Super-Rare,CA
Yura,185,1,false,Elite,CL
Yuubari,179,65,true,Elite,CL
Yuudachi,164,1,false,Super-Rare,DD
Yuugure,176,65,true,Rare,DD
Z1,233,111,true,Elite,DD
Z16,564,99,true,Elite,DD
Z18,346,81,true,Rare,DD
Z19,264,76,true,Rare,DD
Z2,379,65,true,Elite,DD
Z20,265,80,true,Common,DD
Z21,266,80,true,Common,DD
Z23,236,125,true,Elite,DD
Z24,487,1,false,Elite,DD
Z25,237,93,true,Elite,DD
Z26,466,65,true,Elite,DD
Z28,488,1,false,Elite,DD
Z35,345,75,true,Elite,DD
Z36,388,94,true,Elite,DD
Z46,267,116,true,Super-Rare,DD
Zara,413,1,false,Super-Rare,CA
Zeppy,385,120,true,Elite,CV
Zuikaku,229,65,true,Super-Rare,CV
Ägir,Plan020,1,false,Ultra-Rare,CB
Émile Bertin,349,65,true,Elite,CL
Ōkami Mio,Collab057,1,false,Elite,CV
